<?xml version="1.0" encoding="utf-8"?>
<svg xmlns="http://www.w3.org/2000/svg" width="260.16162109375" height="129.09088134765625" viewBox="-293.080810546875 -176.40689086914063 260.16162109375 129.09088134765625" version="1.1">
  <g id="storage">
    <rect x="-293.080810546875" y="-176.40689086914063" width="260.16162109375" height="129.09088134765625" style="fill:#303633;fill-opacity:1;stroke:none;" />
    <path style="fill:none;stroke-width:4;stroke-linecap:round;stroke-linejoin:round;stroke:#8AE234;stroke-opacity:1;stroke-miterlimit:10;" d="M -221.3394775390625 -156.40689086914063 L -223.3883056640625 -155.04098510742188 L -226.78887939453125 -151.64041137695313 L -238.7115478515625 -139.7177734375 L -253.20721435546875 -126.83090209960938 L -263.84722900390625 -116.19088745117188 L -269.4271240234375 -106.29653930664063 L -271.9051513671875 -99.09866333007813 L -273.080810546875 -89.15585327148438 L -269.3482666015625 -81.63543701171875 L -265.8974609375 -75.73233032226563 L -262.6309814453125 -71.38201904296875 L -260.56500244140625 -69.31600952148438 L -258.56500244140625 -68.31600952148438 L -256.52825927734375 -67.31600952148438 L -254.50982666015625 -67.31600952148438 L -247.53814697265625 -67.31600952148438 L -247.53814697265625 -67.31600952148438 " />
    <path style="fill:none;stroke-width:4;stroke-linecap:round;stroke-linejoin:round;stroke:#8AE234;stroke-opacity:1;stroke-miterlimit:10;" d="M -179.134521484375 -113.19287109375 L -180.095458984375 -111.27105712890625 L -180.095458984375 -110.31015014648438 L -181.5228271484375 -101.17324829101563 L -182.984375 -90.08953857421875 L -182.984375 -81.36105346679688 L -179.689697265625 -77.03701782226563 L -178.660400390625 -76.00772094726563 L -176.6859130859375 -76.00772094726563 L -174.6859130859375 -76.00772094726563 L -172.6859130859375 -76.00772094726563 L -171.6859130859375 -76.00772094726563 L -169.58685302734375 -80.30484008789063 L -163.486328125 -87.66082763671875 L -155.14324951171875 -97.07400512695313 L -155.14324951171875 -97.07400512695313 " />
    <path style="fill:none;stroke-width:4;stroke-linecap:round;stroke-linejoin:round;stroke:#8AE234;stroke-opacity:1;stroke-miterlimit:10;" d="M -136.59674072265625 -112.48370361328125 L -137.4005126953125 -111.67990112304688 L -139.2408447265625 -110.75973510742188 L -140.2408447265625 -109.75973510742188 L -142.2408447265625 -107.75973510742188 L -144.2408447265625 -105.75973510742188 L -144.2408447265625 -104.75973510742188 L -145.378173828125 -98.34774780273438 L -145.378173828125 -94.05145263671875 L -145.378173828125 -87.59344482421875 L -145.378173828125 -83.19174194335938 L -145.378173828125 -80.19174194335938 L -144.378173828125 -78.19174194335938 L -141.3873291015625 -78.19174194335938 L -140.390380859375 -78.19174194335938 L -135.3763427734375 -78.19174194335938 L -131.710205078125 -79.41378784179688 L -131.710205078125 -79.41378784179688 " />
    <path style="fill:none;stroke-width:4;stroke-linecap:round;stroke-linejoin:round;stroke:#8AE234;stroke-opacity:1;stroke-miterlimit:10;" d="M -76.1307373046875 -111.25897216796875 L -77.1307373046875 -111.25897216796875 L -78.1307373046875 -111.25897216796875 L -79.11822509765625 -111.25897216796875 L -79.9512939453125 -110.42587280273438 L -80.908203125 -108.51202392578125 L -81.93731689453125 -106.45388793945313 L -81.93731689453125 -105.4248046875 L -85.497314453125 -98.23910522460938 L -86.497314453125 -90.79779052734375 L -86.497314453125 -86.37042236328125 L -85.46734619140625 -82.31045532226563 L -84.46734619140625 -80.28048706054688 L -83.46734619140625 -77.28048706054688 L -80.46734619140625 -76.28048706054688 L -76.23748779296875 -76.28048706054688 L -71.963134765625 -77.31045532226563 L -66.5042724609375 -79.47341918945313 L -61.98394775390625 -83.99374389648438 L -58.4964599609375 -89.77047729492188 L -56.2686767578125 -94.22598266601563 L -55.2391357421875 -98.32205200195313 L -55.2391357421875 -101.3590087890625 L -55.2391357421875 -102.3590087890625 L -55.2391357421875 -98.582275390625 L -55.2391357421875 -93.88397216796875 L -55.2391357421875 -90.0401611328125 L -55.2391357421875 -81.98080444335938 L -53.919189453125 -74.18447875976563 L -52.919189453125 -73.18447875976563 L -52.919189453125 -73.18447875976563 " />
  </g>
</svg>
